module|module_embedded
  id: storage
  id_bundle: system
  title: Storage
  description: Module for storages support.
  copyright: Copyright © 2017—2022 Maxim Rysevets. All rights reserved.
  version: 0.900
  dependencies
    php
    - mbstring: 7.1.0