<?xml version="1.0" encoding="utf-8" standalone="no"?>
<svg
   xmlns="http://www.w3.org/2000/svg"
   xmlns:rdf="http://www.w3.org/1999/02/22-rdf-syntax-ns#"
   xmlns:dc="http://purl.org/dc/elements/1.1/"
   xmlns:cc="http://creativecommons.org/ns#"
   width="48"
   height="48"
   viewBox="0 0 48 48"
   style="shape-rendering: auto">

  <metadata>
    <rdf:RDF>
      <cc:Work>
        <dc:format>image/svg+xml</dc:format>
        <dc:type rdf:resource="http://purl.org/dc/dcmitype/StillImage"/>
        <dc:rights><cc:Agent><dc:title>Copyright © 2017—2022 Maxim Rysevets. All rights reserved.</dc:title></cc:Agent></dc:rights>
        <dc:creator><cc:Agent><dc:title>Maxim Rysevets</dc:title></cc:Agent></dc:creator>
      </cc:Work>
    </rdf:RDF>
  </metadata>

  <g id="icon_avatar_anonymous">
    <rect id="ico_ava-bg" x="0" y="0" width="48" height="48" style="fill: whitesmoke"/>
    <path id="ico_ava-human" style="fill: silver" d="M 24,5 A 12.5,12.5 0 0 0 11.5,17.5 12.5,12.5 0 0 0 24,30 12.5,12.5 0 0 0 36.5,17.5 12.5,12.5 0 0 0 24,5 Z m 0,28 A 24,15 0 0 0 0,48 l 48,0 A 24,15 0 0 0 24,33 Z"/>
  </g>

</svg>