<?xml version="1.0" encoding="utf-8" standalone="no"?>
<svg
   xmlns="http://www.w3.org/2000/svg"
   xmlns:rdf="http://www.w3.org/1999/02/22-rdf-syntax-ns#"
   xmlns:dc="http://purl.org/dc/elements/1.1/"
   xmlns:cc="http://creativecommons.org/ns#"
   width="28"
   height="18"
   viewBox="0 0 28 18"
   style="shape-rendering: auto">

  <metadata>
    <rdf:RDF>
      <cc:Work>
        <dc:format>image/svg+xml</dc:format>
        <dc:type rdf:resource="http://purl.org/dc/dcmitype/StillImage"/>
        <dc:rights><cc:Agent><dc:title>Copyright © 2017—2022 Maxim Rysevets. All rights reserved.</dc:title></cc:Agent></dc:rights>
        <dc:creator><cc:Agent><dc:title>Maxim Rysevets</dc:title></cc:Agent></dc:creator>
      </cc:Work>
    </rdf:RDF>
  </metadata>

  <g id="flag">
    <rect id="flag-bg" x="0" y="0" width="28" height="18" style="fill: #d2d2d6; stroke: none"/>
    <rect id="flag-border" x="0.25" y="0.25" width="27.5" height="17.5" style="fill: none; stroke: black; stroke-width: .5px"/>
    <line id="flag-line_1" x1="0" y1="0"  x2="28" y2="18" style="stroke: black; stroke-width: .5px"/>
    <line id="flag-line_2" x1="0" y1="18" x2="28" y2="0"  style="stroke: black; stroke-width: .5px"/>
  </g>

</svg>